{
  "page": 1,
  "total_results": 10000,
  "total_pages": 500,
  "results": [
    {
      "popularity": 266.526,
      "vote_count": 640,
      "video": false,
      "poster_path": "\/kjMbDciooTbJPofVXgAoFjfX8Of.jpg",
      "id": 516486,
      "adult": false,
      "backdrop_path": "\/xXBnM6uSTk6qqCf0SRZKXcga9Ba.jpg",
      "original_language": "en",
      "original_title": "Greyhound",
      "genre_ids": [
        28,
        18,
        10752
      ],
      "title": "Greyhound",
      "vote_average": 7.6,
      "overview": "A first-time captain leads a convoy of allied ships carrying thousands of soldiers across the treacherous waters of the “Black Pit” to the front lines of WW2. With no air cover protection for 5 days, the captain and his convoy must battle the surrounding enemy Nazi U-boats in order to give the allies a chance to win the war.",
      "release_date": "2020-07-10"
    },
    {
      "popularity": 195.28,
      "vote_count": 1348,
      "video": false,
      "poster_path": "\/cjr4NWURcVN3gW5FlHeabgBHLrY.jpg",
      "id": 547016,
      "adult": false,
      "backdrop_path": "\/m0ObOaJBerZ3Unc74l471ar8Iiy.jpg",
      "original_language": "en",
      "original_title": "The Old Guard",
      "genre_ids": [
        28,
        14
      ],
      "title": "The Old Guard",
      "vote_average": 7.3,
      "overview": "Four undying warriors who've secretly protected humanity for centuries become targeted for their mysterious powers just as they discover a new immortal.",
      "release_date": "2020-07-10"
    },
    {
      "popularity": 219.526,
      "vote_count": 2099,
      "video": false,
      "poster_path": "\/pwmtGo0mTjTqWZwk3k3VSWtygxj.jpg",
      "id": 583083,
      "adult": false,
      "backdrop_path": "\/wO5QSWZPBT71gMLvrRex0bVc0V9.jpg",
      "original_language": "en",
      "original_title": "The Kissing Booth 2",
      "genre_ids": [
        35,
        10749
      ],
      "title": "The Kissing Booth 2",
      "vote_average": 8.3,
      "overview": "High school senior Elle juggles a long-distance relationship with her dreamy boyfriend Noah, college applications, and a new friendship with a handsome classmate that could change everything.",
      "release_date": "2020-07-24"
    },
    {
      "popularity": 107.263,
      "vote_count": 4007,
      "video": false,
      "poster_path": "\/xBHvZcjRiWyobQ9kxBhO6B2dtRI.jpg",
      "id": 419704,
      "adult": false,
      "backdrop_path": "\/AeDS2MKGFy6QcjgWbJBde0Ga6Hd.jpg",
      "original_language": "en",
      "original_title": "Ad Astra",
      "genre_ids": [
        18,
        878
      ],
      "title": "Ad Astra",
      "vote_average": 6.1,
      "overview": "The near future, a time when both hope and hardships drive humanity to look to the stars and beyond. While a mysterious phenomenon menaces to destroy life on planet Earth, astronaut Roy McBride undertakes a mission across the immensity of space and its many perils to uncover the truth about a lost expedition that decades before boldly faced emptiness and silence in search of the unknown.",
      "release_date": "2019-09-17"
    },
    {
      "popularity": 139.434,
      "vote_count": 243,
      "video": false,
      "poster_path": "\/jHo2M1OiH9Re33jYtUQdfzPeUkx.jpg",
      "id": 385103,
      "adult": false,
      "backdrop_path": "\/fKtYXUhX5fxMxzQfyUcQW9Shik6.jpg",
      "original_language": "en",
      "original_title": "Scoob!",
      "genre_ids": [
        12,
        16,
        35,
        9648,
        10751
      ],
      "title": "Scoob!",
      "vote_average": 7.8,
      "overview": "In Scooby-Doo’s greatest adventure yet, see the never-before told story of how lifelong friends Scooby and Shaggy first met and how they joined forces with young detectives Fred, Velma, and Daphne to form the famous Mystery Inc. Now, with hundreds of cases solved, Scooby and the gang face their biggest, toughest mystery ever: an evil plot to unleash the ghost dog Cerberus upon the world. As they race to stop this global “dogpocalypse,” the gang discovers that Scooby has a secret legacy and an epic destiny greater than anyone ever imagined.",
      "release_date": "2020-07-08"
    },
    {
      "popularity": 132.837,
      "vote_count": 37,
      "video": false,
      "poster_path": "\/3ynPnBXQVT2Y0s19fDIPlWKUlxH.jpg",
      "id": 587496,
      "adult": false,
      "backdrop_path": "\/2gBMBfmQvHeOQQ5PiKiuxVdGs77.jpg",
      "original_language": "en",
      "original_title": "The Rental",
      "genre_ids": [
        27,
        53
      ],
      "title": "The Rental",
      "vote_average": 5.8,
      "overview": "Two couples on an oceanside getaway grow suspicious that the host of their seemingly perfect rental house may be spying on them. Before long, what should have been a celebratory weekend trip turns into something far more sinister.",
      "release_date": "2020-07-23"
    },
    {
      "popularity": 149.231,
      "vote_count": 118,
      "video": false,
      "poster_path": "\/1hVEsBS4vnozB1yAsMiqW0IMxyp.jpg",
      "id": 430155,
      "adult": false,
      "backdrop_path": "\/6kJKTKnnPbpyeqCgodqgjkI9aMk.jpg",
      "original_language": "ru",
      "original_title": "Koma",
      "genre_ids": [
        28,
        14,
        878
      ],
      "title": "Coma",
      "vote_average": 6.1,
      "overview": "A young and talented architect comes to his senses after a horrific accident only to find himself in the odd dystopian world. A world that is filled with the memories of all current coma patients. Just like a human memory this world is fragmental, chaotic and unstable. This is COMA: icecaps, rivers and cities can all exist in a space of a single room and laws of physics are no longer laws as they can be bent.",
      "release_date": "2019-11-19"
    },
    {
      "popularity": 126.302,
      "vote_count": 4960,
      "video": false,
      "poster_path": "\/7Dktk2ST6aL8h9Oe5rpk903VLhx.jpg",
      "id": 454983,
      "adult": false,
      "backdrop_path": "\/itiz2OBK4ns6XT0ufXtusojmMt9.jpg",
      "original_language": "en",
      "original_title": "The Kissing Booth",
      "genre_ids": [
        35,
        10749
      ],
      "title": "The Kissing Booth",
      "vote_average": 7.3,
      "overview": "When teenager Elle's first kiss leads to a forbidden romance with the hottest boy in high school, she risks her relationship with her best friend.",
      "release_date": "2018-05-11"
    },
    {
      "popularity": 109.202,
      "vote_count": 13978,
      "video": false,
      "poster_path": "\/udDclJoHjfjb8Ekgsd4FDteOkCU.jpg",
      "id": 475557,
      "adult": false,
      "backdrop_path": "\/n6bUvigpRFqSwmPp1m2YADdbRBc.jpg",
      "original_language": "en",
      "original_title": "Joker",
      "genre_ids": [
        80,
        18,
        53
      ],
      "title": "Joker",
      "vote_average": 8.2,
      "overview": "During the 1980s, a failed stand-up comedian is driven insane and turns to a life of crime and chaos in Gotham City while becoming an infamous psychopathic crime figure.",
      "release_date": "2019-10-02"
    },
    {
      "popularity": 106.733,
      "vote_count": 42,
      "video": false,
      "poster_path": "\/bUi0xPSrxrL7xOD1bIE1RtnMWtn.jpg",
      "id": 673174,
      "adult": false,
      "backdrop_path": "\/61uvGsh4HmhEBDGIUuSEpIjYHdF.jpg",
      "original_language": "es",
      "original_title": "Ofrenda a la tormenta",
      "genre_ids": [
        80,
        53
      ],
      "title": "Offering to the Storm",
      "vote_average": 6.4,
      "overview": "Inspector Amaia Salazar confronts the origins of her nightmares as she unfolds the darkest secrets of the Baztan valley. Part 3 in the Baztan Trilogy.",
      "release_date": "2020-07-24"
    },
    {
      "popularity": 101.749,
      "vote_count": 28,
      "video": false,
      "poster_path": "\/A11Ez4UkOE4Ysmtmur5Bho8qrGM.jpg",
      "id": 611395,
      "adult": false,
      "backdrop_path": "\/tWcxJDjMo9gaNq4nLWW7dpzCbdI.jpg",
      "original_language": "zh",
      "original_title": "征途",
      "genre_ids": [
        28,
        12
      ],
      "title": "Double World",
      "vote_average": 6.9,
      "overview": "Keen to bring honor to his clan, young villager Dong Yilong embarks on a perilous journey to compete in a tournament that selects warriors for battle.",
      "release_date": "2019-11-22"
    },
    {
      "popularity": 73.577,
      "vote_count": 84,
      "video": false,
      "poster_path": "\/eDnHgozW8vfOaLHzfpHluf1GZCW.jpg",
      "id": 606234,
      "adult": false,
      "backdrop_path": "\/u9YEh2xVAPVTKoaMNlB5tH6pXkm.jpg",
      "original_language": "en",
      "original_title": "Archive",
      "genre_ids": [
        878
      ],
      "title": "Archive",
      "vote_average": 6.9,
      "overview": "2038: George Almore is working on a true human-equivalent AI, and his latest prototype is almost ready. This sensitive phase is also the riskiest as he has a goal that must be hidden at all costs—being reunited with his dead wife.",
      "release_date": "2020-06-05"
    },
    {
      "popularity": 86.302,
      "vote_count": 25,
      "video": false,
      "poster_path": "\/uHdxICUIRGoJjK67aOp3ykvL8ZW.jpg",
      "id": 718867,
      "adult": false,
      "backdrop_path": "\/53aUwtolUZxgzMr2KbDpOnD8jo3.jpg",
      "original_language": "en",
      "original_title": "The Larva Island Movie",
      "genre_ids": [
        16,
        10751
      ],
      "title": "The Larva Island Movie",
      "vote_average": 7.7,
      "overview": "Back at home, Chuck relates the island shenanigans of his larva pals Red and Yellow to a skeptical reporter in this movie sequel to the hit cartoon.",
      "release_date": "2020-07-23"
    },
    {
      "popularity": 92.282,
      "vote_count": 12152,
      "video": false,
      "poster_path": "\/uDO8zWDhfWwoFdKS4fzkUJt0Rf0.jpg",
      "id": 313369,
      "adult": false,
      "backdrop_path": "\/qJeU7KM4nT2C1WpOrwPcSDGFUWE.jpg",
      "original_language": "en",
      "original_title": "La La Land",
      "genre_ids": [
        35,
        18,
        10402,
        10749
      ],
      "title": "La La Land",
      "vote_average": 7.9,
      "overview": "Mia, an aspiring actress, serves lattes to movie stars in between auditions and Sebastian, a jazz musician, scrapes by playing cocktail party gigs in dingy bars, but as success mounts they are faced with decisions that begin to fray the fragile fabric of their love affair, and the dreams they worked so hard to maintain in each other threaten to rip them apart.",
      "release_date": "2016-11-29"
    },
    {
      "popularity": 78.394,
      "vote_count": 5203,
      "video": false,
      "poster_path": "\/aQvJ5WPzZgYVDrxLX4R6cLJCEaQ.jpg",
      "id": 454626,
      "adult": false,
      "backdrop_path": "\/stmYfCUGd8Iy6kAMBr6AmWqx8Bq.jpg",
      "original_language": "en",
      "original_title": "Sonic the Hedgehog",
      "genre_ids": [
        28,
        35,
        878,
        10751
      ],
      "title": "Sonic the Hedgehog",
      "vote_average": 7.5,
      "overview": "Based on the global blockbuster videogame franchise from Sega, Sonic the Hedgehog tells the story of the world’s speediest hedgehog as he embraces his new home on Earth. In this live-action adventure comedy, Sonic and his new best friend team up to defend the planet from the evil genius Dr. Robotnik and his plans for world domination.",
      "release_date": "2020-02-12"
    },
    {
      "popularity": 78.967,
      "vote_count": 19081,
      "video": false,
      "poster_path": "\/7WsyChQLEftFiDOVTGkv3hFpyyt.jpg",
      "id": 299536,
      "adult": false,
      "backdrop_path": "\/bOGkgRGdhrBYJSLpXaxhXVstddV.jpg",
      "original_language": "en",
      "original_title": "Avengers: Infinity War",
      "genre_ids": [
        28,
        12,
        878
      ],
      "title": "Avengers: Infinity War",
      "vote_average": 8.3,
      "overview": "As the Avengers and their allies have continued to protect the world from threats too large for any one hero to handle, a new danger has emerged from the cosmic shadows: Thanos. A despot of intergalactic infamy, his goal is to collect all six Infinity Stones, artifacts of unimaginable power, and use them to inflict his twisted will on all of reality. Everything the Avengers have fought for has led up to this moment - the fate of Earth and existence itself has never been more uncertain.",
      "release_date": "2018-04-25"
    },
    {
      "popularity": 84.248,
      "vote_count": 209,
      "video": false,
      "poster_path": "\/hPkqY2EMqWUnFEoedukilIUieVG.jpg",
      "id": 531876,
      "adult": false,
      "backdrop_path": "\/n1RohH2VoK1CdVI2fXvcP19dSlm.jpg",
      "original_language": "en",
      "original_title": "The Outpost",
      "genre_ids": [
        28,
        18,
        36,
        10752
      ],
      "title": "The Outpost",
      "vote_average": 6.7,
      "overview": "A small unit of U.S. soldiers, alone at the remote Combat Outpost Keating, located deep in the valley of three mountains in Afghanistan, battles to defend against an overwhelming force of Taliban fighters in a coordinated attack. The Battle of Kamdesh, as it was known, was the bloodiest American engagement of the Afghan War in 2009 and Bravo Troop 3-61 CAV became one of the most decorated units of the 19-year conflict.",
      "release_date": "2020-06-24"
    },
    {
      "popularity": 79.767,
      "vote_count": 5209,
      "video": false,
      "poster_path": "\/h4VB6m0RwcicVEZvzftYZyKXs6K.jpg",
      "id": 495764,
      "adult": false,
      "backdrop_path": "\/9xNOiv6DZZjH7ABoUUDP0ZynouU.jpg",
      "original_language": "en",
      "original_title": "Birds of Prey (and the Fantabulous Emancipation of One Harley Quinn)",
      "genre_ids": [
        28,
        35,
        80,
        18
      ],
      "title": "Birds of Prey (and the Fantabulous Emancipation of One Harley Quinn)",
      "vote_average": 7.2,
      "overview": "Harley Quinn joins forces with a singer, an assassin and a police detective to help a young girl who had a hit placed on her after she stole a rare diamond from a crime lord.",
      "release_date": "2020-02-05"
    },
    {
      "popularity": 84.739,
      "vote_count": 8535,
      "video": false,
      "poster_path": "\/7IiTTgloJzvGI1TAYymCfbfl3vT.jpg",
      "id": 496243,
      "adult": false,
      "backdrop_path": "\/ApiBzeaa95TNYliSbQ8pJv4Fje7.jpg",
      "original_language": "ko",
      "original_title": "기생충",
      "genre_ids": [
        35,
        18,
        53
      ],
      "title": "Parasite",
      "vote_average": 8.5,
      "overview": "All unemployed, Ki-taek's family takes peculiar interest in the wealthy and glamorous Parks for their livelihood until they get entangled in an unexpected incident.",
      "release_date": "2019-05-30"
    },
    {
      "popularity": 67.428,
      "vote_count": 5320,
      "video": false,
      "poster_path": "\/db32LaOibwEliAmSL2jjDF6oDdj.jpg",
      "id": 181812,
      "adult": false,
      "backdrop_path": "\/SPkEiZGxq5aHWQ2Zw7AITwSEo2.jpg",
      "original_language": "en",
      "original_title": "Star Wars: The Rise of Skywalker",
      "genre_ids": [
        28,
        12,
        878
      ],
      "title": "Star Wars: The Rise of Skywalker",
      "vote_average": 6.6,
      "overview": "The surviving Resistance faces the First Order once again as the journey of Rey, Finn and Poe Dameron continues. With the power and knowledge of generations behind them, the final battle begins.",
      "release_date": "2019-12-18"
    }
  ]
}